Aria’s Little Corner of the (spider)Web - Diets of Juvenile Chinhook Salmon in PNW
…
Juvenile Chinook salmon, Roger Tabor/USFWS, Public Domain, https://www.fws.gov/media/juvenile-chinook-salmon

Data

We found data on the NOAA Fisheries Northwest Fisheries Science Center website, that looked at the contents of fish stomachs, specifically Chinook Salmon. Each fish has an ID number with which we were able to join another dataset from NOAA that had the hatchery locations and measured insulin levels of the fish for extra exploration of how this affects their diet. We also did extensive filtering, selecting, renaming, and mutating of the variables to get the specific information that we wanted to look at, in the format that worked best for us. One major change we made to the dataset was to collapse the 42 unique food types into 6 easily understandable categories. Notable mentions are: Plankton and crustaceans were very difficult to parse, often overlapping greatly, so we just decided to combine them into one group. The ‘Other’ category is comprised of insects, plants, and inorganic materials.

Another note about our data, when we found the second data set that included the hatcheries of each of the fish the, fish not identified to a hatchery were just marked as NA, but from what we know about hatcheries and fish in we can assume that fish that were not specifically from a hatchery are from the wild.

# A tibble: 316 × 24
   latitude longitude salmon_id `Common Name`  `Age Classbylength`
      <dbl>     <dbl>     <dbl> <chr>          <chr>              
 1     46.3     -124.     35181 Chinook salmon yearling           
 2     46.3     -124.     35187 Chinook salmon yearling           
 3     46.3     -124.     35253 Chinook salmon yearling           
 4     46.3     -124.     35254 Chinook salmon yearling           
 5     46.3     -124.     35255 Chinook salmon yearling           
 6     46.3     -124.     35257 Chinook salmon yearling           
 7     46.3     -124.     35261 Chinook salmon yearling           
 8     46.3     -124.     35261 Chinook salmon yearling           
 9     46.3     -124.     35261 Chinook salmon yearling           
10     46.3     -124.     35262 Chinook salmon yearling           
# ℹ 306 more rows
# ℹ 19 more variables: field_length_mm <dbl>, lab_length_mm <dbl>,
#   weight_g <dbl>, `Stomach Condition Description` <chr>,
#   `Prey Item Genus Species` <chr>, prey <chr>, prey_life_stage <chr>,
#   prey_item_count <dbl>, prey_weight_g <dbl>,
#   `Prey Item Condition Description` <chr>, prey_big <fct>,
#   `Genetic Stock Best Estimate` <chr>, …
…
